CCS PCM C Compiler, Version 5.015, 5967               01-abr.-19 14:57

               Filename:   C:\Users\jessica\Documents\instru\instrumentacion-electronica-master\heart-pulse-sensor\sources\pic-code\programa.lst

               ROM used:   345 words (4%)
                           Largest free fragment is 2048
               RAM used:   18 (5%) at main() level
                           23 (6%) worst case
               Stack used: 4 locations (2 in main + 2 for interrupts)
               Stack size: 8

*
0000:  MOVLW  00
0001:  MOVWF  0A
0002:  GOTO   0F1
0003:  NOP
0004:  MOVWF  7F
0005:  SWAPF  03,W
0006:  CLRF   03
0007:  MOVWF  21
0008:  MOVF   0A,W
0009:  MOVWF  20
000A:  CLRF   0A
000B:  MOVF   04,W
000C:  MOVWF  22
000D:  MOVF   77,W
000E:  MOVWF  23
000F:  MOVF   78,W
0010:  MOVWF  24
0011:  MOVF   79,W
0012:  MOVWF  25
0013:  MOVF   7A,W
0014:  MOVWF  26
0015:  BCF    03.7
0016:  BCF    03.5
0017:  MOVLW  8C
0018:  MOVWF  04
0019:  BTFSS  00.5
001A:  GOTO   01D
001B:  BTFSC  0C.5
001C:  GOTO   032
001D:  BTFSS  0B.5
001E:  GOTO   021
001F:  BTFSC  0B.2
0020:  GOTO   035
0021:  MOVF   22,W
0022:  MOVWF  04
0023:  MOVF   23,W
0024:  MOVWF  77
0025:  MOVF   24,W
0026:  MOVWF  78
0027:  MOVF   25,W
0028:  MOVWF  79
0029:  MOVF   26,W
002A:  MOVWF  7A
002B:  MOVF   20,W
002C:  MOVWF  0A
002D:  SWAPF  21,W
002E:  MOVWF  03
002F:  SWAPF  7F,F
0030:  SWAPF  7F,W
0031:  RETFIE
0032:  BCF    0A.3
0033:  BCF    0A.4
0034:  GOTO   03C
0035:  BCF    0A.3
0036:  BCF    0A.4
0037:  GOTO   038
....................  
....................  
.................... #include <16f877a.h> 
.................... //////////// Standard Header file for the PIC16F877A device //////////////// 
.................... /////////////////////////////////////////////////////////////////////////// 
.................... ////        (C) Copyright 1996, 2013 Custom Computer Services          //// 
.................... //// This source code may only be used by licensed users of the CCS C  //// 
.................... //// compiler.  This source code may only be distributed to other      //// 
.................... //// licensed users of the CCS C compiler.  No other use, reproduction //// 
.................... //// or distribution is permitted without written permission.          //// 
.................... //// Derivative programs created using this software in object code    //// 
.................... //// form are not restricted in any way.                               //// 
.................... /////////////////////////////////////////////////////////////////////////// 
.................... #device PIC16F877A 
*
005E:  BCF    0A.0
005F:  BCF    0A.1
0060:  BCF    0A.2
0061:  ADDWF  02,F
0062:  GOTO   047
0063:  GOTO   04C
0064:  GOTO   051
0065:  GOTO   056
*
007D:  MOVF   30,W
007E:  CLRF   78
007F:  SUBWF  2F,W
0080:  BTFSC  03.0
0081:  GOTO   085
0082:  MOVF   2F,W
0083:  MOVWF  77
0084:  GOTO   091
0085:  CLRF   77
0086:  MOVLW  08
0087:  MOVWF  31
0088:  RLF    2F,F
0089:  RLF    77,F
008A:  MOVF   30,W
008B:  SUBWF  77,W
008C:  BTFSC  03.0
008D:  MOVWF  77
008E:  RLF    78,F
008F:  DECFSZ 31,F
0090:  GOTO   088
0091:  RETURN
0092:  CLRF   77
0093:  CLRF   78
0094:  MOVF   2C,W
0095:  BCF    03.0
0096:  BTFSC  2D.0
0097:  ADDWF  77,F
0098:  RRF    77,F
0099:  RRF    78,F
009A:  BTFSC  2D.1
009B:  ADDWF  77,F
009C:  RRF    77,F
009D:  RRF    78,F
009E:  BTFSC  2D.2
009F:  ADDWF  77,F
00A0:  RRF    77,F
00A1:  RRF    78,F
00A2:  BTFSC  2D.3
00A3:  ADDWF  77,F
00A4:  RRF    77,F
00A5:  RRF    78,F
00A6:  BTFSC  2D.4
00A7:  ADDWF  77,F
00A8:  RRF    77,F
00A9:  RRF    78,F
00AA:  BTFSC  2D.5
00AB:  ADDWF  77,F
00AC:  RRF    77,F
00AD:  RRF    78,F
00AE:  BTFSC  2D.6
00AF:  ADDWF  77,F
00B0:  RRF    77,F
00B1:  RRF    78,F
00B2:  BTFSC  2D.7
00B3:  ADDWF  77,F
00B4:  RRF    77,F
00B5:  RRF    78,F
00B6:  RETURN
00B7:  MOVF   78,W
00B8:  MOVF   2D,W
00B9:  MOVWF  2F
00BA:  MOVLW  64
00BB:  MOVWF  30
00BC:  CALL   07D
00BD:  MOVF   77,W
00BE:  MOVWF  2D
00BF:  MOVF   78,W
00C0:  MOVLW  30
00C1:  BTFSS  03.2
00C2:  GOTO   0CA
00C3:  BTFSS  2E.1
00C4:  GOTO   0D2
00C5:  BTFSC  2E.3
00C6:  GOTO   0D2
00C7:  BTFSC  2E.4
00C8:  MOVLW  20
00C9:  GOTO   0CD
00CA:  BCF    2E.3
00CB:  BCF    2E.4
00CC:  BSF    2E.0
00CD:  ADDWF  78,F
00CE:  MOVF   78,W
00CF:  BTFSS  0C.4
00D0:  GOTO   0CF
00D1:  MOVWF  19
00D2:  MOVF   2D,W
00D3:  MOVWF  2F
00D4:  MOVLW  0A
00D5:  MOVWF  30
00D6:  CALL   07D
00D7:  MOVF   77,W
00D8:  MOVWF  2D
00D9:  MOVF   78,W
00DA:  MOVLW  30
00DB:  BTFSS  03.2
00DC:  GOTO   0E3
00DD:  BTFSC  2E.3
00DE:  GOTO   0E8
00DF:  BTFSS  2E.0
00E0:  GOTO   0E8
00E1:  BTFSC  2E.4
00E2:  MOVLW  20
00E3:  ADDWF  78,F
00E4:  MOVF   78,W
00E5:  BTFSS  0C.4
00E6:  GOTO   0E5
00E7:  MOVWF  19
00E8:  MOVLW  30
00E9:  ADDWF  2D,F
00EA:  MOVF   2D,W
00EB:  BTFSS  0C.4
00EC:  GOTO   0EB
00ED:  MOVWF  19
00EE:  BCF    0A.3
00EF:  BCF    0A.4
00F0:  GOTO   14D (RETURN)
....................  
.................... #list 
....................  
.................... #fuses hs,nowdt,noprotect,noput 
.................... #use delay (clock=4M) 
*
0066:  MOVLW  2D
0067:  MOVWF  04
0068:  BCF    03.7
0069:  MOVF   00,W
006A:  BTFSC  03.2
006B:  GOTO   07A
006C:  MOVLW  01
006D:  MOVWF  78
006E:  CLRF   77
006F:  DECFSZ 77,F
0070:  GOTO   06F
0071:  DECFSZ 78,F
0072:  GOTO   06E
0073:  MOVLW  4A
0074:  MOVWF  77
0075:  DECFSZ 77,F
0076:  GOTO   075
0077:  GOTO   078
0078:  DECFSZ 00,F
0079:  GOTO   06C
007A:  BCF    0A.3
007B:  BCF    0A.4
007C:  GOTO   11B (RETURN)
....................  
.................... #use rs232 (baud=9600, parity=N, xmit=pin_c6, rcv=pin_c7, bits=8) 
....................  
.................... char dato = ""; 
....................  
....................  
.................... #int_timer0 
.................... void timer_0() 
.................... { 
.................... } 
....................  
*
0038:  BCF    0B.2
0039:  BCF    0A.3
003A:  BCF    0A.4
003B:  GOTO   021
.................... #int_rda 
.................... void rda_isr() { 
....................   dato = getc(); 
003C:  BTFSS  0C.5
003D:  GOTO   03C
003E:  MOVF   1A,W
003F:  MOVWF  27
....................   switch (dato) { 
0040:  MOVLW  31
0041:  SUBWF  27,W
0042:  ADDLW  FC
0043:  BTFSC  03.0
0044:  GOTO   05A
0045:  ADDLW  04
0046:  GOTO   05E
....................   case '1': 
....................     output_high(pin_b7); 
0047:  BSF    03.5
0048:  BCF    06.7
0049:  BCF    03.5
004A:  BSF    06.7
....................     break; 
004B:  GOTO   05A
....................   case '2': 
....................     output_low(pin_b7); 
004C:  BSF    03.5
004D:  BCF    06.7
004E:  BCF    03.5
004F:  BCF    06.7
....................     break; 
0050:  GOTO   05A
....................   case '3': 
....................     output_high(pin_b6); 
0051:  BSF    03.5
0052:  BCF    06.6
0053:  BCF    03.5
0054:  BSF    06.6
....................     break; 
0055:  GOTO   05A
....................   case '4': 
....................     output_low(pin_b6); 
0056:  BSF    03.5
0057:  BCF    06.6
0058:  BCF    03.5
0059:  BCF    06.6
....................     break; 
....................   } 
005A:  BCF    0C.5
005B:  BCF    0A.3
005C:  BCF    0A.4
005D:  GOTO   021
.................... } 
....................  
.................... void main() 
*
00F1:  MOVF   03,W
00F2:  ANDLW  1F
00F3:  MOVWF  03
00F4:  MOVLW  19
00F5:  BSF    03.5
00F6:  MOVWF  19
00F7:  MOVLW  A6
00F8:  MOVWF  18
00F9:  MOVLW  90
00FA:  BCF    03.5
00FB:  MOVWF  18
00FC:  CLRF   27
00FD:  BSF    03.5
00FE:  BSF    1F.0
00FF:  BSF    1F.1
0100:  BSF    1F.2
0101:  BCF    1F.3
0102:  MOVLW  07
0103:  MOVWF  1C
0104:  BCF    03.7
0105:  BCF    03.5
0106:  CLRF   28
0107:  CLRF   29
0108:  CLRF   2A
.................... { 
.................... int counter = 0; 
.................... int time = 0; 
.................... int flag = 0; 
.................... int divisor; 
....................  
....................    setup_timer_0(RTCC_EXT_l_TO_H|RTCC_DIV_1);  
0109:  BSF    03.5
010A:  MOVF   01,W
010B:  ANDLW  C7
010C:  IORLW  28
010D:  MOVWF  01
....................    set_timer0(0); 
010E:  BCF    03.5
010F:  CLRF   01
....................    enable_interrupts(int_rda); 
0110:  BSF    03.5
0111:  BSF    0C.5
....................    enable_interrupts(int_timer0); 
0112:  BCF    03.5
0113:  BSF    0B.5
....................    enable_interrupts(global); 
0114:  MOVLW  C0
0115:  IORWF  0B,F
....................    while(true) 
....................    { 
....................       delay_ms(1000); 
0116:  MOVLW  04
0117:  MOVWF  2C
0118:  MOVLW  FA
0119:  MOVWF  2D
011A:  GOTO   066
011B:  DECFSZ 2C,F
011C:  GOTO   118
....................       time++; 
011D:  INCF   29,F
....................       counter = get_timer0();      
011E:  MOVF   01,W
011F:  MOVWF  28
....................       if(time==5) 
0120:  MOVF   29,W
0121:  SUBLW  05
0122:  BTFSS  03.2
0123:  GOTO   157
....................       { 
....................          flag = 1; 
0124:  MOVLW  01
0125:  MOVWF  2A
....................          if(counter <= 65) 
0126:  MOVF   28,W
0127:  SUBLW  41
0128:  BTFSS  03.0
0129:  GOTO   12E
....................          { 
....................          counter = 55 + ( 60 - counter); 
012A:  MOVF   28,W
012B:  SUBLW  3C
012C:  ADDLW  37
012D:  MOVWF  28
....................          } 
....................          if (counter >= 120) 
012E:  MOVF   28,W
012F:  SUBLW  77
0130:  BTFSC  03.0
0131:  GOTO   142
....................          { 
....................             divisor = (counter / 120); 
0132:  MOVF   28,W
0133:  MOVWF  2F
0134:  MOVLW  78
0135:  MOVWF  30
0136:  CALL   07D
0137:  MOVF   78,W
0138:  MOVWF  2B
....................             counter = 70 + (counter - (divisor*100)); 
0139:  MOVF   2B,W
013A:  MOVWF  2C
013B:  MOVLW  64
013C:  MOVWF  2D
013D:  CALL   092
013E:  MOVF   78,W
013F:  SUBWF  28,W
0140:  ADDLW  46
0141:  MOVWF  28
....................          } 
....................          printf("%u\n\r",counter*30);  
0142:  MOVF   28,W
0143:  MOVWF  2C
0144:  MOVLW  1E
0145:  MOVWF  2D
0146:  CALL   092
0147:  MOVF   78,W
0148:  MOVWF  2C
0149:  MOVWF  2D
014A:  MOVLW  1B
014B:  MOVWF  2E
014C:  GOTO   0B7
014D:  MOVLW  0A
014E:  BTFSS  0C.4
014F:  GOTO   14E
0150:  MOVWF  19
0151:  MOVLW  0D
0152:  BTFSS  0C.4
0153:  GOTO   152
0154:  MOVWF  19
....................          time = 0;       
0155:  CLRF   29
....................          set_timer0(0); 
0156:  CLRF   01
....................       } 
0157:  GOTO   116
....................    } 
.................... } 
....................  
0158:  SLEEP
....................  

Configuration Fuses:
   Word  1: 3F7A   HS NOWDT NOPUT BROWNOUT NOLVP NOCPD NOWRT NODEBUG NOPROTECT
